Comparing detection efficiencies across experiments • tinyvamp
…
data("costea2017_sample_data")
protocol_df <- W %>% 
  as_tibble(rownames="Run_accession") %>%
  full_join(costea2017_sample_data) %>% 
  select(Run_accession, Protocol)
#> Joining with `by = join_by(Run_accession)`
protocol_df
#> # A tibble: 30 × 2
#>    Run_accession Protocol
#>    <chr>         <chr>   
#>  1 cells_per_ml  NA      
#>  2 ERR1971003    Q       
#>  3 ERR1971004    Q       
#>  4 ERR1971005    Q       
#>  5 ERR1971006    Q       
#>  6 ERR1971007    Q       
#>  7 ERR1971008    Q       
#>  8 ERR1971009    Q       
#>  9 ERR1971010    Q       
#> 10 ERR1971011    Q       
#> # ℹ 20 more rows
…
Woohoo, done! Pretty fast considering the number of parameters in
this model (67). For this analysis we just use the default optimization
settings, but you can play around with them and learn more through
?estimate_parameters

full_model is a list that contains a bunch of
information. You can what’s in there with
full_model %>% names. Let’s dive right in and check out
some of the estimates:

full_model$varying %>% as_tibble
#> # A tibble: 67 × 4
#>     value param     k     j
#>     <dbl> <chr> <dbl> <dbl>
#>  1 0.0343 P         1     1
#>  2 0.106  P         1     2
#>  3 0.0553 P         1     3
#>  4 0.228  P         1     4
#>  5 0.0155 P         1     5
#>  6 0.168  P         1     6
#>  7 0.0688 P         1     7
#>  8 0.147  P         1     8
#>  9 0.0773 P         1     9
#> 10 0.0992 P         1    10
#> # ℹ 57 more rows
…
