Using dilution series to remove contamination • tinyvamp
…
Let’s check everything worked okay:

full_karstens_model$optimization_status
#> [1] "Converged"

Terrific! The estimated parameter values are in the object
varying:

full_karstens_model$varying %>% as_tibble
#> # A tibble: 264 × 4
#>       value param       k     j
#>       <dbl> <chr>   <dbl> <dbl>
#>  1 0.0123   P_tilde     1     1
#>  2 0.0333   P_tilde     1     2
#>  3 0.0603   P_tilde     1     3
#>  4 0.0109   P_tilde     1     4
#>  5 0.0220   P_tilde     1     5
#>  6 0.00670  P_tilde     1     6
#>  7 0.00502  P_tilde     1     7
#>  8 0.00350  P_tilde     1     8
#>  9 0.00731  P_tilde     1     9
#> 10 0.000752 P_tilde     1    10
#> # ℹ 254 more rows
…
