…
To fit `tinyvamp`, we need to specify the detection design matrix
$\mathbf{X}$, which tells the software which samples were sequenced with
which protocols. To do that, let’s load the sample data and join it to
our abundance data (this makes sure we don’t mix up the order of the
rows across datasets):

``` r
data("costea2017_sample_data")
protocol_df <- W %>% 
  as_tibble(rownames="Run_accession") %>%
  full_join(costea2017_sample_data) %>% 
  select(Run_accession, Protocol)
#> Joining with `by = join_by(Run_accession)`
protocol_df
#> # A tibble: 30 × 2
#>    Run_accession Protocol
#>    <chr>         <chr>   
#>  1 cells_per_ml  NA      
#>  2 ERR1971003    Q       
#>  3 ERR1971004    Q       
#>  4 ERR1971005    Q       
#>  5 ERR1971006    Q       
#>  6 ERR1971007    Q       
#>  7 ERR1971008    Q       
#>  8 ERR1971009    Q       
#>  9 ERR1971010    Q       
#> 10 ERR1971011    Q       
#> # ℹ 20 more rows
```
…
Woohoo, done! The model converges quickly (\<1 second on my 8 y.o.
computer) despite the relatively large number of parameters (67). For
this analysis we just use the default optimization settings, but you can
play around with them and learn more through
[`?estimate_parameters`](https://statdivlab.github.io/tinyvamp/reference/estimate_parameters.md)

`full_model` is a list that contains a bunch of information. You can
what’s in there with `full_model %>% names`. Let’s dive right in and
check out some of the estimates:

``` r
full_model$varying %>% as_tibble
#> # A tibble: 67 × 4
#>     value param     k     j
#>     <dbl> <chr> <dbl> <dbl>
#>  1 0.0343 P         1     1
#>  2 0.106  P         1     2
#>  3 0.0553 P         1     3
#>  4 0.228  P         1     4
#>  5 0.0155 P         1     5
#>  6 0.168  P         1     6
#>  7 0.0688 P         1     7
#>  8 0.147  P         1     8
#>  9 0.0773 P         1     9
#> 10 0.0992 P         1    10
#> # ℹ 57 more rows
```
…
#> ℹ Using compatibility `.name_repair`.
#> This warning is displayed once per session.
#> Call `lifecycle::last_lifecycle_warnings()` to see where this warning was
#> generated.
colnames(fitted_detectabilities) <- colnames(W)
the_betahats <- the_settings %>% 
  mutate("setting" = ifelse(intercept == 0, "Flow cytometry",
                            ifelse(qq == 0 & ww == 0, "H relative to FC",
                                   ifelse(qq == 1 & ww == 0, "Q relative to FC",
                                          "W relative to FC"))), .before = 1) %>% 
  bind_cols(fitted_detectabilities) %>% 
  select(-intercept, -qq, -ww) %>% 
  pivot_longer(-setting)
the_betahats
#> # A tibble: 40 × 3
#>    setting        name                        value
#>    <chr>          <chr>                       <dbl>
#>  1 Flow cytometry Blautia_hansenii                0
#>  2 Flow cytometry Clostridium_difficile           0
#>  3 Flow cytometry Clostridium_perfringens         0
#>  4 Flow cytometry Clostridium_saccharolyticum     0
#>  5 Flow cytometry Fusobacterium_nucleatum         0
#>  6 Flow cytometry Lactobacillus_plantarum         0
#>  7 Flow cytometry Prevotella_melaninogenica       0
#>  8 Flow cytometry Salmonella_enterica             0
#>  9 Flow cytometry Vibrio_cholerae                 0
#> 10 Flow cytometry Yersinia_pseudotuberculosis     0
#> # ℹ 30 more rows
…
